{
  "page": 15,
  "total_results": 7634,
  "total_pages": 382,
  "results": [{
    "vote_count": 129,
    "id": 32480,
    "video": false,
    "vote_average": 7.9,
    "title": "Il marchese del Grillo",
    "popularity": 3.7,
    "poster_path": "\/xcKMFggToWY9ccsMNKh0xwnqfDq.jpg",
    "original_language": "it",
    "original_title": "Il marchese del Grillo",
    "genre_ids": [35],
    "backdrop_path": "\/pmc8Byi5JAZXI7DftFCJBVPVnGn.jpg",
    "adult": false,
    "overview": "",
    "release_date": "1981-12-22"
  }, {
    "vote_count": 4388,
    "id": 13223,
    "video": false,
    "vote_average": 7.9,
    "title": "그랜 토리노",
    "popularity": 10.322,
    "poster_path": "\/jZyeKM17ytbnxvO52Ivyzq8IB1i.jpg",
    "original_language": "en",
    "original_title": "Gran Torino",
    "genre_ids": [18],
    "backdrop_path": "\/w7oBCXL7gAwmYD7g0W17q8q1Ozc.jpg",
    "adult": false,
    "overview": "자동차 공장에서 은퇴한 월트 코왈스키(클린트 이스트우드)의 일상은 집을 수리하고 맥주를 마시고 매달 이발하러 가는 것이 전부다. 전쟁의 상처에 괴로워하고 M-1 소총을 손에서 놓지 못하는 남편이 참회하길 바란다는 월트 아내의 유언을 이뤄주려고 자코비치 신부가 하루가 멀게 그를 찾아오지만 그가 자신의 속내를 털어놓을 만큼 믿는 존재는 애견 데이지뿐이다. 어느 날 이웃집 소년 타오가 갱단의 협박으로 월트의 72년형 그랜 토리노를 훔치려 하고, 차를 훔치지 못하게 하고 갱단의 싸움을 무마시킨 월트는 본의 아니게 타오의 엄마와 누나 수의 영웅이 되는데...",
    "release_date": "2008-12-09"
  }, {
    "vote_count": 172,
    "id": 11656,
    "video": false,
    "vote_average": 7.9,
    "title": "Jungfrukällan",
    "popularity": 6.116,
    "poster_path": "\/zFDtirgBArEMNNhIUJvYA7k2tzn.jpg",
    "original_language": "sv",
    "original_title": "Jungfrukällan",
    "genre_ids": [80, 18],
    "backdrop_path": "\/5wsFDjQ1UjjzvzIS39opUw4ySa4.jpg",
    "adult": false,
    "overview": "",
    "release_date": "1960-02-08"
  }, {
    "vote_count": 239,
    "id": 398924,
    "video": false,
    "vote_average": 7.9,
    "title": "백 오브 마블스",
    "popularity": 6.17,
    "poster_path": "\/57C8wLEoeJ9vVqZarsfx54YEWxS.jpg",
    "original_language": "fr",
    "original_title": "Un sac de billes",
    "genre_ids": [18],
    "backdrop_path": "\/tPjbpTt4S1q7uTSXWscHq7gmd2u.jpg",
    "adult": false,
    "overview": "1941년 2차 세계대전 당시 두 명의 유태인 소년이 노란 별을 달고 나치 치하의 프랑스를 탈출하려는 이야기",
    "release_date": "2017-01-18"
  }, {
    "vote_count": 548,
    "id": 142061,
    "video": false,
    "vote_average": 7.9,
    "title": "배트맨: 다크 나이트 리턴즈 파트2",
    "popularity": 9.872,
    "poster_path": "\/wPeorCnD9MRR2S9Dzh4OpIgNLiv.jpg",
    "original_language": "en",
    "original_title": "Batman: The Dark Knight Returns, Part 2",
    "genre_ids": [28, 16, 9648],
    "backdrop_path": "\/ew0ouZ1MSxbNugPMgbOhuTrd3aA.jpg",
    "adult": false,
    "overview": "범죄를 처단하는 영웅인가, 법질서를 무시하고 날뛰는 또 다른 범죄자일 뿐인가. 배트맨의 재등장에 대해 고담 시민들의 의견이 분분한 와중에 그를 모방한 범죄까지 일어나면서 논란은 더욱 뜨거워진다. 그리고 드디어, 브루스가 후원까지 해가며 치료하려 했던 투페이스 그리고 배트맨 최강의 적 조커가 슬슬 활동을 시작한다.\r 게다가 때는 군비 확장 일로에 있던 냉전 시대. 소비에트에서 발사한 핵폭탄이 고담 시로 날아든다. 배트맨은 고담을 어지럽히던 갱단과 투페이스, 조커를 처단하고, 핵폭탄의 진로를 돌려놓고 돌아온 슈퍼맨과 마지막 결전을 시작한다. 미국 정부의 요원이 된 ‘모범생 슈퍼히어로’ 클라크 켄트와 법질서의 울타리 밖으로 자꾸만 뛰쳐나가는 ‘문제아’ 브루스 웨인. 둘의 대결에서 최후의 승자는 누가 될 것인가?",
    "release_date": "2013-01-18"
  }, {
    "vote_count": 1319,
    "id": 829,
    "video": false,
    "vote_average": 7.9,
    "title": "차이나타운",
    "popularity": 11.411,
    "poster_path": "\/iIHO6FzF6lL4mA90rrmk3Y705XS.jpg",
    "original_language": "en",
    "original_title": "Chinatown",
    "genre_ids": [80, 18, 9648, 53],
    "backdrop_path": "\/9UdSUcAVQQaffwbB0aDrbaMGsdQ.jpg",
    "adult": false,
    "overview": "사립 탐정인 기키스는 의뢰인들을 상대로 남의 뒷을 캐내 불륜 관계 등을 발켜내는 일을 하는 사람이다. 어느날 어느 부인의 부탁으로 남편인 멀레이라는 수력발전의 권위자의 뒤를 캐내어 그가 어느 여자와 사귀고 있음을 밝혀낸다. 하지만 멀레이의 부인인 에블린이 나타나 의뢰했던 멀레이의 부인은 가짜임이 나타난다. 그런데 얼마 후 멀레이가 시체로 발견된다. 그가 익사가 아닌 살인임을 알게 된 기키스는 에블린의 처녀때 성이 크로스임을 알고 에블린의 아버지인 크로스와 남편 에블린이 옛 동료임을 알게 된다. 크로스를 만난 기키스는 멀레이가 사귀던 여자를 찾아달라는 이치에 맞지 않는 부탁만 듣는다. 그리고 멀레이가 사귀던 여자가 에블린의 동생 캐서린임을 알게 되고, 기키스는 범인으로 멀레이의 부인 에블린을 의심한다. 하지만 멀레이의 동료였던 크로스가 못쓰는 땅을 헐값에 사들인 후 저수지 물을 그쪽으로 빼돌려 옥토로 만든 후 비싼 값으로 팔아먹으려는 계획을 세웠고, 멀레이가 그 사실을 눈치채자 크로스가 살해해 버린 사실을 밝혀 낸다. 더구나 크로스는 혈육이 없고, 자식에 대한 지나친 집념으로 양녀인 에블린을 범해 그녀가 낳은 딸 캐서린을 자기자식으로 만들려고 했던 비열한 행위까지 밝혀진다.",
    "release_date": "1974-06-20"
  }, {
    "vote_count": 494,
    "id": 12104,
    "video": false,
    "vote_average": 7.9,
    "title": "핑크 플로이드의 벽",
    "popularity": 8.117,
    "poster_path": "\/jshxdvf8A7oQqBAH3GFwXRwDyCX.jpg",
    "original_language": "en",
    "original_title": "Pink Floyd: The Wall",
    "genre_ids": [10402],
    "backdrop_path": "\/sofxsyR4Br8CdKLCZzzITvdrU4g.jpg",
    "adult": false,
    "overview": "전쟁으로 아버지를 잃은 핑크(Pink: 봅 제도프 분)는 엄마와 단둘이 외롭게 살아간다. 늘 혼자인 핑크는 전쟁 공포증과 더불어 자유로운 사고를 가로막는 교육 제도에 적응하지 못하고 방황한다. 이런 부적응이 세상이 다 자신을 향해 쌓은 벽이라 생각한 그는 틀에 박힌 관념과 행동양식에 파괴의식을 느낀다. 성장하여 록스타가 되었지만 사람들의 박수는 참을 수 없는 짐이 되고, 사랑에도 실패한 핑크는 세상과 벽을 쌓는 자학적인 행동을 하면서 소외도디고 불안정한 생활을 지속한다.",
    "release_date": "1982-07-14"
  }, {
    "vote_count": 308,
    "id": 11010,
    "video": false,
    "vote_average": 7.9,
    "title": "일 포스티노",
    "popularity": 5.129,
    "poster_path": "\/ac9e8SgwxVRNEStAhytaeaR5URT.jpg",
    "original_language": "it",
    "original_title": "Il postino",
    "genre_ids": [35, 18, 10749],
    "backdrop_path": "\/32pvxFiXNo2TdNpBiuHN8k2Mr4K.jpg",
    "adult": false,
    "overview": "작은 섬 칼라 디소토에 오게 된 시인 네루다, 어부의 아들 마리오는 그의 도착으로 인해 불어난 우편물량을 소화하고자 우체부로 고용된다. 로맨틱 시인 네루다와 가까이 지내면서 섬마을 여자들의 관심을 끌고자 했던 마리오는 그와 우정을 쌓아가면서 시와 은유의 세계를 만나게 되고, 아름답지만 다가갈 수 없을 것만 같았던 베아트리체 루쏘와 사랑을 이루게 된다. 그리고 그의 내면에 자라고 있던 뜨거운 이성과 감성을 발견하게 되는데…",
    "release_date": "1994-09-22"
  }, {
    "vote_count": 146,
    "id": 16305,
    "video": false,
    "vote_average": 7.9,
    "title": "설리반의 여행",
    "popularity": 5.009,
    "poster_path": "\/bZfw8EpYfbEG325mlzcE59fv20N.jpg",
    "original_language": "en",
    "original_title": "Sullivan's Travels",
    "genre_ids": [12, 35, 18, 10749],
    "backdrop_path": "\/ypDNV4yt2wfpQlquvSVbPOmgVBF.jpg",
    "adult": false,
    "overview": "",
    "release_date": "1941-11-30"
  }, {
    "vote_count": 114,
    "id": 41050,
    "video": false,
    "vote_average": 7.9,
    "title": "La notte",
    "popularity": 7.875,
    "poster_path": "\/32Z0Vsrt9LGAiBBwTKR8L9B3ICa.jpg",
    "original_language": "it",
    "original_title": "La notte",
    "genre_ids": [18],
    "backdrop_path": "\/fzXaPgwkbBgA7E0KzrkvQhKwovQ.jpg",
    "adult": false,
    "overview": "",
    "release_date": "1961-01-23"
  }, {
    "vote_count": 7540,
    "id": 313369,
    "video": false,
    "vote_average": 7.9,
    "title": "라라랜드",
    "popularity": 21.082,
    "poster_path": "\/wr4d8yzFpERMPZkXDvf30HclUL5.jpg",
    "original_language": "en",
    "original_title": "La La Land",
    "genre_ids": [35, 18, 10749],
    "backdrop_path": "\/nadTlnTE6DdgmYsN4iWc2a2wiaI.jpg",
    "adult": false,
    "overview": "차들로 빽빽이 들어찬 LA의 고속도로. 거북이 걸음이던 도로가 뚫리기 시작하지만 미아(에마 스톤)는 지금 손에 든 연기 오디션 대본을 놓지 못한다. 세바스찬(라이언 고슬링)은 경적을 누르며 미아를 노려보고는 사라진다. 악연의 시작. 이후 미아는 감미로운 피아노 선율에 이끌려 재즈바로 향하는데, 연주자가 바로 세바스찬이다. 미아가 세바스찬에게 인사를 건네려고 다가가던 순간은 하필 그가 재즈바의 레퍼토리를 무시하고 연주한 탓에 해고된 직후. 세바스찬은 인사를 건네려 다가온 미아를 쌩하니 스쳐 지나가버린다. 세 번째로 두 사람은 파티에 온 손님과 출장 밴드의 키보드 연주자로 다시 만나는데...",
    "release_date": "2016-11-29"
  }, {
    "vote_count": 1128,
    "id": 9323,
    "video": false,
    "vote_average": 7.9,
    "title": "공각기동대",
    "popularity": 10.682,
    "poster_path": "\/qzCMXEwiH5ym4wBl9EwS8QtCzlN.jpg",
    "original_language": "ja",
    "original_title": "GHOST IN THE SHELL",
    "genre_ids": [28, 16, 878],
    "backdrop_path": "\/m1LUdsYnFThcrbvRzlpbsFioEQT.jpg",
    "adult": false,
    "overview": "때는 서기 2029년, 아시아의 뉴포트라는 도시. 인간의 뇌도 통신 네트워크의 일부가 된 사회에서 가장 극악한 범죄는 고스트 해킹이다. 인간의 정체성을 규명하는 광의의 영혼을 뜻하는 고스트를 해킹해 타인의 기억 등을 조작하고 변경시키는 것. 인형사라 불리는 정체불명의 악명 높은 고스트 해커가 유럽에서 뉴포트로 주활동 무대를 옮겼다는 소식이 들린다. 이를 막기 위해 외교상 일어나는 국제범죄, 테러 등에 대해 정보수집과 감사를 행하는 정보기관 공안 6과와 쿠사나기 모토코 소령을 중심으로 한 공안 9과, 즉 공각기동대가 나선다.",
    "release_date": "1995-11-18"
  }, {
    "vote_count": 13828,
    "id": 118340,
    "video": false,
    "vote_average": 7.9,
    "title": "가디언즈 오브 갤럭시",
    "popularity": 52.858,
    "poster_path": "\/tJMnQZMNSPFmC6m7hlIYRZZXJti.jpg",
    "original_language": "en",
    "original_title": "Guardians of the Galaxy",
    "genre_ids": [28, 878, 12],
    "backdrop_path": "\/bHarw8xrmQeqf3t8HpuMY7zoK4x.jpg",
    "adult": false,
    "overview": "자칭 전설의 무법자 스타로드, 그러나 현실은 우주를 떠도는 그저그런 좀도둑에 불과한 피터 퀼(크리스 프랫)은 무엇인지도 모른 채 오브를 훔쳤다가 생고생의 길로 접어든다. 값나가는 유물인 줄 알았던 오브가 실은 어마어마한 힘을 지닌 인피니티 스톤이었던 것. 뜻하지 않게 갤럭시의 절대악 타노스와 로난의 타겟이 된 그는 감옥에서 만난 암살자 가모라(조 샐다나), 거구의 파이터 드랙스(데이브 바티스타), 현상금 사냥꾼 로켓(브래들리 쿠퍼)과 그루트(빈 디젤) 콤비와 불편한 동맹을 맺고 일명 가디언즈 오브 갤럭시를 결성하는데...",
    "release_date": "2014-07-30"
  }, {
    "vote_count": 5156,
    "id": 354912,
    "video": false,
    "vote_average": 7.9,
    "title": "코코",
    "popularity": 36.35,
    "poster_path": "\/6AANwKhjIEVyya95oW4IA6joL1Z.jpg",
    "original_language": "en",
    "original_title": "Coco",
    "genre_ids": [16],
    "backdrop_path": "\/askg3SMvhqEl4OL52YuvdtY40Yb.jpg",
    "adult": false,
    "overview": "미구엘은 멕시코의 자랑인 에르네스토 델라 크루즈 같은 뮤지션이 되길 꿈꾸지만 미구엘 집안 사람들에게 음악은 금기다. 먼 옛날 조상 중에 음악 때문에 가족을 버린 인물이 있었기 때문. 미구엘은 죽은 자의 날이 되자 실력으로 인정받겠다는 결심을 하고 경연 무대에 오르려 하는데, 우연히 에르네스토의 기타에 손을 댔다가 죽은 자들의 세상에 들어서게 된다. 이승과 저승을 이어주는 마리골드 꽃길을 건너 죽은 자들의 세상에 도착한 미구엘은 거짓말과 위변조가 장기인 헥터를 만난다. 그리고 꿈에 그리던 우상 에르네스토를 만나러 가는 여정에서 가족의 비밀을 알게 된다.",
    "release_date": "2017-10-27"
  }, {
    "vote_count": 451,
    "id": 962,
    "video": false,
    "vote_average": 7.9,
    "title": "황금광 시대",
    "popularity": 7.653,
    "poster_path": "\/eQRFo1qwRREYwj47Yoe1PisgOle.jpg",
    "original_language": "en",
    "original_title": "The Gold Rush",
    "genre_ids": [12, 35, 18],
    "backdrop_path": "\/m5eYy0SY33hLnxWAdrILJddTi49.jpg",
    "adult": false,
    "overview": "금광을 찾아 알래스카에 온 찰리는 살인범 블랙의 오두막에서 금광을 찾았다는 멕케이를 만난다. 산속에 갖힌 이들은 원조를 청하는 제비뽑기를 한다. 블랙이 길을 떠나지만 추격중이던 경찰을 만나 죽고,찰리와 맥케이는 너무 배가 고파 구두를 끓여 먹기도 한다. 간신히 마을에 도착한 찰리는 조지아라는 무희에게 반한다. 그녀는 추근거리는 남자들을 따돌리기 위해 찰리와 춤을 추지만, 어느날 그가 자신을 좋아하고 있음을 눈치챈다. 한편 자신이 발견한 금광의 위치를 잊어버린 멕케이는 찰리와 함께 구사일생으로 금광을 다시 찾고 이들은 백만 장자가 되는데...",
    "release_date": "1925-06-25"
  }, {
    "vote_count": 310,
    "id": 27670,
    "video": false,
    "vote_average": 7.9,
    "title": "Non ci resta che piangere",
    "popularity": 5.453,
    "poster_path": "\/taKGG3hmRzn1TmC8fpvL9JU5SDV.jpg",
    "original_language": "it",
    "original_title": "Non ci resta che piangere",
    "genre_ids": [35],
    "backdrop_path": "\/14B9dU9i0tjZ4kIH32cAaDjAWWg.jpg",
    "adult": false,
    "overview": "",
    "release_date": "1984-12-20"
  }, {
    "vote_count": 4858,
    "id": 266856,
    "video": false,
    "vote_average": 7.9,
    "title": "사랑에 대한 모든 것",
    "popularity": 13.883,
    "poster_path": "\/7C2ZJ4hRBgf96BbSz0qTMHHeXAc.jpg",
    "original_language": "en",
    "original_title": "The Theory of Everything",
    "genre_ids": [18, 10749],
    "backdrop_path": "\/geAe08WmchATnZF461WffQBqJk1.jpg",
    "adult": false,
    "overview": "촉망받는 물리학도 스티븐 호킹(에디 레드메인)은 신년파티에서 매력적이고 당찬 여인 제인 와일드(펠리시티 존스)와 마주친다. 이미 정해진 운명이었던 것처럼 두 사람은 첫 만남에 서로에게 빠져든다. 물리학도와 인문학도, 천재적이지만 괴짜 같은 남자와 다정하지만 강인한 여자, 두 사람은 완벽한 커플로 사랑을 키워나간다. 하지만 영원히 행복할 것 같았던 두 사람 앞에 모든 것을 바꿀 사건이 일어난다. 시한부 인생, 2년. 스티븐은 점점 신발 끈을 묶는 게 어려워 지고, 발음은 흐릿해지고, 지팡이 없이는 걷는 것 조차 힘들어져 갔다. 과학자로서의 미래와 영원할 것 같은 사랑, 모든 것이 불가능한 일이 되어 버렸다. 희망조차 사라진 순간 스티븐은 모든 것을 포기하려 하지만 제인은 그를 향한 믿음과 변함없는 마음을 보여주고 그의 곁에서 그의 삶을 일으킨다. 삶의 모든 것을 바꾼 기적 같은 사랑 이야기가 지금 시작된다.",
    "release_date": "2014-11-26"
  }, {
    "vote_count": 424,
    "id": 13929,
    "video": false,
    "vote_average": 7.9,
    "title": "게리의 게임",
    "popularity": 6.079,
    "poster_path": "\/1yqWnnRtbixqolHARRH4KymNBhj.jpg",
    "original_language": "en",
    "original_title": "Geri's Game",
    "genre_ids": [16, 10751],
    "backdrop_path": "\/baddGVlv1zk1RDhf0dKUHyKxcQq.jpg",
    "adult": false,
    "overview": "혼자서 체스를 하는 노인의 이야기를 묘사한 픽사 스튜디오의 단편 애니메이션. 스스로 체스를 잘 두는 역과 잘 못 두는 역을 하면서 곤란함, 비참함, 후회, 즐거움, 가소로움, 조롱 등의 표정을 생생히 드러낸다. 97년 아카데미 시상식에서 단편 애니메이션 작품상, 22회 안시 페스티벌에서 관객상을 수상한 픽사의 '잰 핑카바'의 작품.",
    "release_date": "1997-11-24"
  }, {
    "vote_count": 189,
    "id": 33320,
    "video": false,
    "vote_average": 7.9,
    "title": "천년여우",
    "popularity": 6.603,
    "poster_path": "\/uDQBMK0C5eLjp8R6upEfGAMQXKq.jpg",
    "original_language": "ja",
    "original_title": "千年女優",
    "genre_ids": [16, 18, 10749],
    "backdrop_path": "\/fA9nKoohygDh9VSNX8kzkWC7097.jpg",
    "adult": false,
    "overview": "평생을 이끌어온 운명, ‘열쇠의 남자’를 만나다 창립 70주년을 맞아 개축을 위해 촬영장을 철거하는 ‘은영’ 영화사는 이를 기념하기 위해 전설적인 여배우 ‘후지와라 치요꼬’의 다큐멘터리 영화 제작을 ‘타찌바나 겐야’ 에게 맡긴다. 평소 그녀의 작품을 수십 번이나 봤을 정도로 열혈 팬이었던 그는 그녀를 찾아 나선다. 그녀는 전성기를 누리던 30년 전 갑자기 은막 뒤로 사라진 뒤, 신비에 둘러싸여 온 인물. 타찌바나는 어렵게 찾아낸 그녀..",
    "release_date": "2002-09-14"
  }, {
    "vote_count": 195,
    "id": 666,
    "video": false,
    "vote_average": 7.9,
    "title": "중앙역",
    "popularity": 4.782,
    "poster_path": "\/uQj3kqTPOVnEFnWr7esi90ZyzTm.jpg",
    "original_language": "pt",
    "original_title": "Central do Brasil",
    "genre_ids": [18],
    "backdrop_path": "\/ssfV8i10hyo89T2pvFFASD1ArA1.jpg",
    "adult": false,
    "overview": "",
    "release_date": "1998-11-20"
  }]
}